"file";"threads";"mean_cost";"median_cost";"mean_time";"median_time"
"per_edges_graphs/undirected/graph_2000_500000_10_Scenario1_Undirection_AllBlocks.stp";1;12775;12775;145.788;145.788
"per_edges_graphs/undirected/graph_2000_35984_10_Scenario1_Undirection_AllBlocks.stp";1;14086;14086;151.84;151.84
"per_edges_graphs/undirected/graph_2000_258973_10_Scenario1_Undirection_AllBlocks.stp";1;9526;9526;198.545;198.545
"per_edges_graphs/undirected/graph_2000_18637_10_Scenario1_Undirection_AllBlocks.stp";1;21903;21903;181.311;181.311
"per_edges_graphs/undirected/graph_2000_359842_10_Scenario1_Undirection_AllBlocks.stp";1;12552;12552;146.83;146.83
"per_edges_graphs/undirected/graph_2000_69474_10_Scenario1_Undirection_AllBlocks.stp";1;11711;11711;165.789;165.789
"per_edges_graphs/undirected/graph_2000_9653_10_Scenario1_Undirection_AllBlocks.stp";1;27802;27802;151.636;151.636
"per_edges_graphs/undirected/graph_2000_25897_10_Scenario1_Undirection_AllBlocks.stp";1;19294;19294;132.429;132.429
"per_edges_graphs/undirected/graph_2000_6947_10_Scenario1_Undirection_AllBlocks.stp";1;47547;47547;131.538;131.538
"per_edges_graphs/undirected/graph_2000_186379_10_Scenario1_Undirection_AllBlocks.stp";1;15364;15364;137.492;137.492
"per_edges_graphs/undirected/graph_2000_50000_10_Scenario1_Undirection_AllBlocks.stp";1;17024;17024;132.507;132.507
"per_edges_graphs/undirected/graph_2000_5000_10_Scenario1_Undirection_AllBlocks.stp";1;57501;57501;138.755;138.755
"per_edges_graphs/undirected/graph_2000_13413_10_Scenario1_Undirection_AllBlocks.stp";1;22590;22590;137.998;137.998
"per_edges_graphs/undirected/graph_2000_134134_10_Scenario1_Undirection_AllBlocks.stp";1;10701;10701;138.485;138.485
"per_edges_graphs/undirected/graph_2000_96534_10_Scenario1_Undirection_AllBlocks.stp";1;13269;13269;121.596;121.596

