"file";"threads";"mean_cost";"median_cost";"mean_time";"median_time"
"per_thread_graphs/graph_5000_60000_12_Scenario1_Percent60_Direction_AllBlocks.stp";1;19091;19091;3344.74;3344.74
"per_thread_graphs/graph_5000_60000_12_Scenario1_Percent60_Direction_AllBlocks.stp";2;19091;19091;1743.11;1743.11
"per_thread_graphs/graph_5000_60000_12_Scenario1_Percent60_Direction_AllBlocks.stp";3;19091;19091;1212.12;1212.12
"per_thread_graphs/graph_5000_60000_12_Scenario1_Percent60_Direction_AllBlocks.stp";4;19091;19091;952.096;952.096
"per_thread_graphs/graph_5000_60000_12_Scenario1_Percent60_Direction_AllBlocks.stp";5;19091;19091;986.743;986.743
"per_thread_graphs/graph_5000_60000_12_Scenario1_Percent60_Direction_AllBlocks.stp";6;19091;19091;875.236;875.236
"per_thread_graphs/graph_5000_60000_12_Scenario1_Percent60_Direction_AllBlocks.stp";7;19091;19091;891.619;891.619
"per_thread_graphs/graph_5000_60000_12_Scenario1_Percent60_Direction_AllBlocks.stp";8;19091;19091;1082.59;1082.59

