"file";"threads";"mean_cost";"median_cost";"mean_time";"median_time"
"per_terminal_graphs/directed/testset2/graph_20000_60000_3_Scenario1_Percent60_Direction_AllBlocks.stp";1;24543;24543;0.97635;0.97635
"per_terminal_graphs/directed/testset2/graph_20000_60000_4_Scenario1_Percent60_Direction_AllBlocks.stp";1;35113;35113;2.30243;2.30243
"per_terminal_graphs/directed/testset2/graph_20000_60000_5_Scenario1_Percent60_Direction_AllBlocks.stp";1;46507;46507;4.82606;4.82606
"per_terminal_graphs/directed/testset2/graph_20000_60000_6_Scenario1_Percent60_Direction_AllBlocks.stp";1;57412;57412;10.0635;10.0635
"per_terminal_graphs/directed/testset2/graph_20000_60000_7_Scenario1_Percent60_Direction_AllBlocks.stp";1;57651;57651;20.5387;20.5387
"per_terminal_graphs/directed/testset2/graph_20000_60000_8_Scenario1_Percent60_Direction_AllBlocks.stp";1;58138;58138;41.7476;41.7476
"per_terminal_graphs/directed/testset2/graph_20000_60000_9_Scenario1_Percent60_Direction_AllBlocks.stp";1;59036;59036;85.3307;85.3307
"per_terminal_graphs/directed/testset2/graph_20000_60000_10_Scenario1_Percent60_Direction_AllBlocks.stp";1;59257;59257;171.467;171.467

