"file";"threads";"mean_cost";"median_cost";"mean_time";"median_time"
"per_terminal_graphs/undirected/testset1/graph_5000_60000_7_Scenario1_Undirection_AllBlocks.stp";1;18570;18570;10.6948;10.6948
"per_terminal_graphs/undirected/testset1/graph_5000_60000_9_Scenario1_Undirection_AllBlocks.stp";1;19396;19396;47.5214;47.5214
"per_terminal_graphs/undirected/testset1/graph_5000_60000_6_Scenario1_Undirection_AllBlocks.stp";1;17588;17588;5.47598;5.47598
"per_terminal_graphs/undirected/testset1/graph_5000_60000_5_Scenario1_Undirection_AllBlocks.stp";1;13013;13013;2.71446;2.71446
"per_terminal_graphs/undirected/testset1/graph_5000_60000_12_Scenario1_Undirection_AllBlocks.stp";1;21084;21084;384.359;384.359
"per_terminal_graphs/undirected/testset1/graph_5000_60000_10_Scenario1_Undirection_AllBlocks.stp";1;20230;20230;91.4714;91.4714
"per_terminal_graphs/undirected/testset1/graph_5000_60000_3_Scenario1_Undirection_AllBlocks.stp";1;8563;8563;0.562871;0.562871
"per_terminal_graphs/undirected/testset1/graph_5000_60000_11_Scenario1_Undirection_AllBlocks.stp";1;20651;20651;187.902;187.902
"per_terminal_graphs/undirected/testset1/graph_5000_60000_4_Scenario1_Undirection_AllBlocks.stp";1;11225;11225;1.26855;1.26855
"per_terminal_graphs/undirected/testset1/graph_5000_60000_8_Scenario1_Undirection_AllBlocks.stp";1;18671;18671;22.8447;22.8447
"per_terminal_graphs/undirected/testset1/graph_5000_60000_13_Scenario1_Undirection_AllBlocks.stp";1;21734;21734;776.265;776.265

