"file";"threads";"mean_cost";"median_cost";"mean_time";"median_time"
"../../tests/B/b13_terms/b13_16.stp";4;165;165;20.255;20.255
"../../tests/B/b13_terms/b13_17.stp";4;165;165;20.1771;20.1771
"../../tests/B/b13_terms/b13_6.stp";4;86;86;0.0296365;0.0296365
"../../tests/B/b13_terms/b13_7.stp";4;88;88;0.0318546;0.0318546
"../../tests/B/b13_terms/b13_4.stp";4;49;49;0.0276175;0.0276175
"../../tests/B/b13_terms/b13.stp";4;165;165;20.299;20.299
"../../tests/B/b13_terms/b13_1.stp";4;0;0;0.000588292;0.000588292
"../../tests/B/b13_terms/b13_12.stp";4;126;126;0.135927;0.135927
"../../tests/B/b13_terms/b13_15.stp";4;154;154;6.64549;6.64549
"../../tests/B/b13_terms/b13_13.stp";4;126;126;0.293296;0.293296
"../../tests/B/b13_terms/b13_2.stp";4;58;58;0.000951843;0.000951843
"../../tests/B/b13_terms/b13_10.stp";4;106;106;0.0491848;0.0491848
"../../tests/B/b13_terms/b13_5.stp";4;80;80;0.0285365;0.0285365
"../../tests/B/b13_terms/b13_8.stp";4;106;106;0.0344478;0.0344478
"../../tests/B/b13_terms/b13_9.stp";4;106;106;0.0401948;0.0401948
"../../tests/B/b13_terms/b13_14.stp";4;139;139;0.783657;0.783657
"../../tests/B/b13_terms/b13_11.stp";4;122;122;0.0732891;0.0732891
"../../tests/B/b13_terms/b13_3.stp";4;41;41;0.0281251;0.0281251

